<?xml version="1.0" encoding="UTF-8" standalone="no"?>
<!DOCTYPE svg PUBLIC "-//W3C//DTD SVG 1.1//EN"
 "http://www.w3.org/Graphics/SVG/1.1/DTD/svg11.dtd">
<!-- Generated by graphviz version 2.43.0 (0)
 -->
<!-- Title: snakemake_dag Pages: 1 -->
<svg width="804pt" height="425pt"
 viewBox="0.00 0.00 803.50 425.00" xmlns="http://www.w3.org/2000/svg" xmlns:xlink="http://www.w3.org/1999/xlink">
<g id="graph0" class="graph" transform="scale(1 1) rotate(0) translate(4 421)">
<title>snakemake_dag</title>
<polygon fill="white" stroke="transparent" points="-4,4 -4,-421 799.5,-421 799.5,4 -4,4"/>
<!-- 0 -->
<g id="node1" class="node">
<title>0</title>
<path fill="none" stroke="#56d8a9" stroke-width="2" stroke-dasharray="5,2" d="M411.5,-36C411.5,-36 381.5,-36 381.5,-36 375.5,-36 369.5,-30 369.5,-24 369.5,-24 369.5,-12 369.5,-12 369.5,-6 375.5,0 381.5,0 381.5,0 411.5,0 411.5,0 417.5,0 423.5,-6 423.5,-12 423.5,-12 423.5,-24 423.5,-24 423.5,-30 417.5,-36 411.5,-36"/>
<text text-anchor="middle" x="396.5" y="-15.5" font-family="sans" font-size="10.00">all</text>
</g>
<!-- 1 -->
<g id="node2" class="node">
<title>1</title>
<path fill="none" stroke="#d85656" stroke-width="2" stroke-dasharray="5,2" d="M173,-113C173,-113 12,-113 12,-113 6,-113 0,-107 0,-101 0,-101 0,-84 0,-84 0,-78 6,-72 12,-72 12,-72 173,-72 173,-72 179,-72 185,-78 185,-84 185,-84 185,-101 185,-101 185,-107 179,-113 173,-113"/>
<text text-anchor="middle" x="92.5" y="-101" font-family="sans" font-size="10.00">train_table_dataset</text>
<text text-anchor="middle" x="92.5" y="-90" font-family="sans" font-size="10.00">modeling_type: logreg</text>
<text text-anchor="middle" x="92.5" y="-79" font-family="sans" font-size="10.00">postfix: _train_val_split_simple_pp</text>
</g>
<!-- 1&#45;&gt;0 -->
<g id="edge1" class="edge">
<title>1&#45;&gt;0</title>
<path fill="none" stroke="grey" stroke-width="2" d="M174.37,-71.98C234.7,-57.59 313.9,-38.7 359.61,-27.8"/>
<polygon fill="grey" stroke="grey" stroke-width="2" points="360.47,-31.19 369.38,-25.47 358.84,-24.38 360.47,-31.19"/>
</g>
<!-- 2 -->
<g id="node3" class="node">
<title>2</title>
<path fill="none" stroke="#d8ac56" stroke-width="2" stroke-dasharray="5,2" d="M356.5,-201C356.5,-201 234.5,-201 234.5,-201 228.5,-201 222.5,-195 222.5,-189 222.5,-189 222.5,-161 222.5,-161 222.5,-155 228.5,-149 234.5,-149 234.5,-149 356.5,-149 356.5,-149 362.5,-149 368.5,-155 368.5,-161 368.5,-161 368.5,-189 368.5,-189 368.5,-195 362.5,-201 356.5,-201"/>
<text text-anchor="middle" x="295.5" y="-189" font-family="sans" font-size="10.00">preprocess_table_dataset</text>
<text text-anchor="middle" x="295.5" y="-178" font-family="sans" font-size="10.00">dataset: adult</text>
<text text-anchor="middle" x="295.5" y="-167" font-family="sans" font-size="10.00">postfix: _train_val_split</text>
<text text-anchor="middle" x="295.5" y="-156" font-family="sans" font-size="10.00">preprocessor_type: simple</text>
</g>
<!-- 2&#45;&gt;1 -->
<g id="edge5" class="edge">
<title>2&#45;&gt;1</title>
<path fill="none" stroke="grey" stroke-width="2" d="M232.38,-148.97C206.48,-138.7 176.66,-126.87 151.23,-116.79"/>
<polygon fill="grey" stroke="grey" stroke-width="2" points="152.3,-113.45 141.72,-113.02 149.72,-119.96 152.3,-113.45"/>
</g>
<!-- 8 -->
<g id="node9" class="node">
<title>8</title>
<path fill="none" stroke="#d85656" stroke-width="2" stroke-dasharray="5,2" d="M376,-113C376,-113 215,-113 215,-113 209,-113 203,-107 203,-101 203,-101 203,-84 203,-84 203,-78 209,-72 215,-72 215,-72 376,-72 376,-72 382,-72 388,-78 388,-84 388,-84 388,-101 388,-101 388,-107 382,-113 376,-113"/>
<text text-anchor="middle" x="295.5" y="-101" font-family="sans" font-size="10.00">train_table_dataset</text>
<text text-anchor="middle" x="295.5" y="-90" font-family="sans" font-size="10.00">modeling_type: catboost</text>
<text text-anchor="middle" x="295.5" y="-79" font-family="sans" font-size="10.00">postfix: _train_val_split_simple_pp</text>
</g>
<!-- 2&#45;&gt;8 -->
<g id="edge11" class="edge">
<title>2&#45;&gt;8</title>
<path fill="none" stroke="grey" stroke-width="2" d="M295.5,-148.97C295.5,-140.86 295.5,-131.78 295.5,-123.35"/>
<polygon fill="grey" stroke="grey" stroke-width="2" points="299,-123.15 295.5,-113.15 292,-123.15 299,-123.15"/>
</g>
<!-- 3 -->
<g id="node4" class="node">
<title>3</title>
<path fill="none" stroke="#59d856" stroke-width="2" stroke-dasharray="5,2" d="M443,-273C443,-273 350,-273 350,-273 344,-273 338,-267 338,-261 338,-261 338,-249 338,-249 338,-243 344,-237 350,-237 350,-237 443,-237 443,-237 449,-237 455,-243 455,-249 455,-249 455,-261 455,-261 455,-267 449,-273 443,-273"/>
<text text-anchor="middle" x="396.5" y="-258" font-family="sans" font-size="10.00">split_table_dataset</text>
<text text-anchor="middle" x="396.5" y="-247" font-family="sans" font-size="10.00">dataset_name: adult</text>
</g>
<!-- 3&#45;&gt;2 -->
<g id="edge6" class="edge">
<title>3&#45;&gt;2</title>
<path fill="none" stroke="grey" stroke-width="2" d="M374.08,-236.69C363.02,-228.15 349.33,-217.57 336.49,-207.65"/>
<polygon fill="grey" stroke="grey" stroke-width="2" points="338.26,-204.6 328.2,-201.26 333.98,-210.14 338.26,-204.6"/>
</g>
<!-- 7 -->
<g id="node8" class="node">
<title>7</title>
<path fill="none" stroke="#d8ac56" stroke-width="2" stroke-dasharray="5,2" d="M559.5,-201C559.5,-201 437.5,-201 437.5,-201 431.5,-201 425.5,-195 425.5,-189 425.5,-189 425.5,-161 425.5,-161 425.5,-155 431.5,-149 437.5,-149 437.5,-149 559.5,-149 559.5,-149 565.5,-149 571.5,-155 571.5,-161 571.5,-161 571.5,-189 571.5,-189 571.5,-195 565.5,-201 559.5,-201"/>
<text text-anchor="middle" x="498.5" y="-189" font-family="sans" font-size="10.00">preprocess_table_dataset</text>
<text text-anchor="middle" x="498.5" y="-178" font-family="sans" font-size="10.00">dataset: adult</text>
<text text-anchor="middle" x="498.5" y="-167" font-family="sans" font-size="10.00">postfix: _train_val_split</text>
<text text-anchor="middle" x="498.5" y="-156" font-family="sans" font-size="10.00">preprocessor_type: onehot</text>
</g>
<!-- 3&#45;&gt;7 -->
<g id="edge10" class="edge">
<title>3&#45;&gt;7</title>
<path fill="none" stroke="grey" stroke-width="2" d="M418.88,-236.88C430.25,-228.19 444.41,-217.36 457.63,-207.25"/>
<polygon fill="grey" stroke="grey" stroke-width="2" points="459.89,-209.93 465.71,-201.07 455.64,-204.37 459.89,-209.93"/>
</g>
<!-- 4 -->
<g id="node5" class="node">
<title>4</title>
<path fill="none" stroke="#56a9d8" stroke-width="2" stroke-dasharray="5,2" d="M447,-345C447,-345 346,-345 346,-345 340,-345 334,-339 334,-333 334,-333 334,-321 334,-321 334,-315 340,-309 346,-309 346,-309 447,-309 447,-309 453,-309 459,-315 459,-321 459,-321 459,-333 459,-333 459,-339 453,-345 447,-345"/>
<text text-anchor="middle" x="396.5" y="-330" font-family="sans" font-size="10.00">adult_dataset_reading</text>
<text text-anchor="middle" x="396.5" y="-319" font-family="sans" font-size="10.00">table_format: csv</text>
</g>
<!-- 4&#45;&gt;3 -->
<g id="edge7" class="edge">
<title>4&#45;&gt;3</title>
<path fill="none" stroke="grey" stroke-width="2" d="M396.5,-308.7C396.5,-300.98 396.5,-291.71 396.5,-283.11"/>
<polygon fill="grey" stroke="grey" stroke-width="2" points="400,-283.1 396.5,-273.1 393,-283.1 400,-283.1"/>
</g>
<!-- 5 -->
<g id="node6" class="node">
<title>5</title>
<path fill="none" stroke="#afd856" stroke-width="2" stroke-dasharray="5,2" d="M460,-417C460,-417 333,-417 333,-417 327,-417 321,-411 321,-405 321,-405 321,-393 321,-393 321,-387 327,-381 333,-381 333,-381 460,-381 460,-381 466,-381 472,-387 472,-393 472,-393 472,-405 472,-405 472,-411 466,-417 460,-417"/>
<text text-anchor="middle" x="396.5" y="-396.5" font-family="sans" font-size="10.00">adult_dataset_downloading</text>
</g>
<!-- 5&#45;&gt;4 -->
<g id="edge8" class="edge">
<title>5&#45;&gt;4</title>
<path fill="none" stroke="grey" stroke-width="2" d="M396.5,-380.7C396.5,-372.98 396.5,-363.71 396.5,-355.11"/>
<polygon fill="grey" stroke="grey" stroke-width="2" points="400,-355.1 396.5,-345.1 393,-355.1 400,-355.1"/>
</g>
<!-- 6 -->
<g id="node7" class="node">
<title>6</title>
<path fill="none" stroke="#d85656" stroke-width="2" stroke-dasharray="5,2" d="M579.5,-113C579.5,-113 417.5,-113 417.5,-113 411.5,-113 405.5,-107 405.5,-101 405.5,-101 405.5,-84 405.5,-84 405.5,-78 411.5,-72 417.5,-72 417.5,-72 579.5,-72 579.5,-72 585.5,-72 591.5,-78 591.5,-84 591.5,-84 591.5,-101 591.5,-101 591.5,-107 585.5,-113 579.5,-113"/>
<text text-anchor="middle" x="498.5" y="-101" font-family="sans" font-size="10.00">train_table_dataset</text>
<text text-anchor="middle" x="498.5" y="-90" font-family="sans" font-size="10.00">modeling_type: logreg</text>
<text text-anchor="middle" x="498.5" y="-79" font-family="sans" font-size="10.00">postfix: _train_val_split_onehot_pp</text>
</g>
<!-- 6&#45;&gt;0 -->
<g id="edge2" class="edge">
<title>6&#45;&gt;0</title>
<path fill="none" stroke="grey" stroke-width="2" d="M470.9,-71.88C458.02,-62.73 442.61,-51.77 429.16,-42.21"/>
<polygon fill="grey" stroke="grey" stroke-width="2" points="430.83,-39.11 420.65,-36.17 426.77,-44.81 430.83,-39.11"/>
</g>
<!-- 7&#45;&gt;6 -->
<g id="edge9" class="edge">
<title>7&#45;&gt;6</title>
<path fill="none" stroke="grey" stroke-width="2" d="M498.5,-148.97C498.5,-140.86 498.5,-131.78 498.5,-123.35"/>
<polygon fill="grey" stroke="grey" stroke-width="2" points="502,-123.15 498.5,-113.15 495,-123.15 502,-123.15"/>
</g>
<!-- 9 -->
<g id="node10" class="node">
<title>9</title>
<path fill="none" stroke="#d85656" stroke-width="2" stroke-dasharray="5,2" d="M783.5,-113C783.5,-113 621.5,-113 621.5,-113 615.5,-113 609.5,-107 609.5,-101 609.5,-101 609.5,-84 609.5,-84 609.5,-78 615.5,-72 621.5,-72 621.5,-72 783.5,-72 783.5,-72 789.5,-72 795.5,-78 795.5,-84 795.5,-84 795.5,-101 795.5,-101 795.5,-107 789.5,-113 783.5,-113"/>
<text text-anchor="middle" x="702.5" y="-101" font-family="sans" font-size="10.00">train_table_dataset</text>
<text text-anchor="middle" x="702.5" y="-90" font-family="sans" font-size="10.00">modeling_type: catboost</text>
<text text-anchor="middle" x="702.5" y="-79" font-family="sans" font-size="10.00">postfix: _train_val_split_onehot_pp</text>
</g>
<!-- 7&#45;&gt;9 -->
<g id="edge12" class="edge">
<title>7&#45;&gt;9</title>
<path fill="none" stroke="grey" stroke-width="2" d="M561.93,-148.97C587.96,-138.7 617.92,-126.87 643.48,-116.79"/>
<polygon fill="grey" stroke="grey" stroke-width="2" points="645.02,-119.94 653.04,-113.02 642.46,-113.43 645.02,-119.94"/>
</g>
<!-- 8&#45;&gt;0 -->
<g id="edge3" class="edge">
<title>8&#45;&gt;0</title>
<path fill="none" stroke="grey" stroke-width="2" d="M322.83,-71.88C335.58,-62.73 350.84,-51.77 364.16,-42.21"/>
<polygon fill="grey" stroke="grey" stroke-width="2" points="366.5,-44.84 372.59,-36.17 362.42,-39.15 366.5,-44.84"/>
</g>
<!-- 9&#45;&gt;0 -->
<g id="edge4" class="edge">
<title>9&#45;&gt;0</title>
<path fill="none" stroke="grey" stroke-width="2" d="M620.1,-71.98C559.37,-57.59 479.64,-38.7 433.63,-27.8"/>
<polygon fill="grey" stroke="grey" stroke-width="2" points="434.33,-24.37 423.8,-25.47 432.72,-31.18 434.33,-24.37"/>
</g>
</g>
</svg>
